LineNumber,VariableName,Type,Description
1,definingParametersCovMatrixDiag,vector<vector<float> >,Diagonal components of the track covariance matrix
2,definingParametersCovMatrixOffDiag,vector<vector<float> >,Off-diagonal components of the track covariance matrix
3,phi,vector<float>,"Track kinematics in perigee representation of parameters, defined wrt beamspot"
4,numberOfInnermostPixelLayerHits,vector<unsigned char>,Track summary information
5,numberOfPixelHits,vector<unsigned char>,Track summary information
6,numberOfPixelSharedHits,vector<unsigned char>,Track summary information
7,numberOfPixelHoles,vector<unsigned char>,Track summary information
8,numberOfSCTHits,vector<unsigned char>,Track summary information
9,numberOfSCTSharedHits,vector<unsigned char>,Track summary information
10,numberOfSCTHoles,vector<unsigned char>,Track summary information
11,numberOfPixelDeadSensors,vector<unsigned char>,Track summary information
12,numberOfSCTDeadSensors,vector<unsigned char>,Track summary information
13,qOverP,vector<float>,"Track kinematics in perigee representation of parameters, defined wrt beamspot"
14,TTVA_AMVFWeights,vector<vector<float> >,Weight of the track used in the fit of the corresponding vertex in TTVA_AMVFVertices during adaptive multi-vertex fitting
15,d0,vector<float>,"Transverse impact parameter, i.e. the distance of the closest point of the track to the beamspot on the transverse plane"
16,z0,vector<float>,"Longitudinal impact parameter, i.e. the track's distance from the beamspot along the z-axis, calculated at the point of closest approach to the beamspot on the transverse plane"
17,theta,vector<float>,"Track kinematics in perigee representation of parameters, defined wrt beamspot"
18,vz,vector<float>,"The point of reference for the z0 calculation, i.e. the beamspot position along the z-axis"
19,chiSquared,vector<float>,Track fit quality
20,numberDoF,vector<float>,Track fit quality
21,numberOfTRTHits,vector<unsigned char>,Track summary information
22,numberOfTRTOutliers,vector<unsigned char>,Track summary information
23,truthParticleLink,vector<ElementLink<DataVector<xAOD::TruthParticle_v1> > >,Link from Inner Detector track to corresponding truth particle
24,TTVA_AMVFVertices,vector<vector<ElementLink<DataVector<xAOD::Vertex_v1> > > >,Link from Inner Detector tracks to corresponding vertices
