ActsPixelClusterizationAlg                                        INFO Clusterization statistics
|----------|------------|
| RDOs     |    3423993 |
| Clusters |    1165578 |
|----------|------------|
ActsStripClusterizationAlg                                        INFO Clusterization statistics
|----------|------------|
| RDOs     |    1345365 |
| Clusters |    1081478 |
|----------|------------|
ActsPixelSpacePointFormationAlg                                   INFO Space Point Formation statistics
|--------------|------------|
| Clusters     |    1165578 |
| Space Points |    1165578 |
|--------------|------------|
ActsStripSpacePointFormationAlg                                   INFO Space Point Formation statistics
|----------------------|------------|
| Clusters             |    1081478 |
| Space Points         |     325456 |
| Overlap Space Points |      94491 |
|----------------------|------------|
ActsPixelSeedingAlg                                               INFO Seed statistics
|---------------------|------------|
| Spacepoints         |    1165578 |
| Seeds               |     123542 |
| No track parameters |          0 |
|---------------------|------------|
ActsStripSeedingAlg                                               INFO Seed statistics
|---------------------|------------|
| Spacepoints         |     419947 |
| Seeds               |      24791 |
| No track parameters |          0 |
|---------------------|------------|
ActsTrackFindingAlg                                               INFO statistics
|-----------------------------------|------------|------------|------------|
|                           All eta | PPP        | SSS        | ALL        |
|-----------------------------------|------------|------------|------------|
| Input seeds                       |     123542 |      24791 |     148333 |
| No track parameters               |          0 |          0 |          0 |
| Used   seeds                      |      78786 |      15511 |      94297 |
| Cannot find track                 |      65221 |      13952 |      79173 |
| Duplicate seeds                   |      44756 |       9280 |      54036 |
| CKF tracks                        |      13565 |       1559 |      15124 |
| Rejected refined parameters       |          0 |          0 |          0 |
| selected tracks                   |      13354 |        539 |      13893 |
| Stopped tracks reaching max holes |      62633 |      15160 |      77793 |
| Seeds with more than one branch   |          0 |          0 |          0 |
| Tracks failing second CKF         |       7653 |       1422 |       9075 |
| Stopped tracks below pT cut       |       3523 |        214 |       3737 |
| Stopped tracks above max eta      |         22 |          0 |         22 |
|-----------------------------------|------------|------------|------------|
ActsTrackFindingAlg                                               INFO Ratios
|------------------------------------------|------------|------------|------------|
|                                          | PPP        | SSS        | ALL        |
|------------------------------------------|------------|------------|------------|
| failed / seeds                           |   0.527926 |   0.562785 |   0.533752 |
| duplication / seeds                      |   0.362274 |   0.374329 |   0.364288 |
| Rejected refined params / seeds          |          0 |          0 |          0 |
| selected / CKF tracks                    |   0.984445 |   0.345734 |   0.918606 |
| selected tracks / used seeds             |   0.169497 |  0.0347495 |   0.147332 |
| branched tracks / used seeds             |          0 |          0 |          0 |
| no 2nd CKF / CKF tracks                  |   0.564173 |   0.912123 |    0.60004 |
|------------------------------------------|------------|------------|------------|
| selected / CKF tracks           0.0- 0.5 |   0.998205 |  0.0458716 |   0.842342 |
|                                 0.5- 1.0 |          1 |   0.162866 |   0.843484 |
|                                 1.0- 1.5 |   0.997627 |   0.134387 |   0.853659 |
|                                 1.5- 2.0 |   0.992063 |   0.652661 |   0.922547 |
|                                 2.0- 2.5 |   0.994893 |   0.501182 |   0.907182 |
|                                 2.5- 3.0 |   0.963451 |          0 |   0.963042 |
|                                 3.0- 3.5 |    0.96679 |          0 |    0.96679 |
|                                 3.5-+inf |   0.984057 |          0 |   0.984057 |
|------------------------------------------|------------|------------|------------|
ActsLargeRadiusPixelClusterPreparationAlg                         INFO Data Prep statistics
|---------|------------|
| Inputs  |    1165578 |
| Outputs |    1064978 |
|---------|------------|
ActsLargeRadiusStripClusterPreparationAlg                         INFO Data Prep statistics
|---------|------------|
| Inputs  |    1081478 |
| Outputs |    1041788 |
|---------|------------|
ActsLargeRadiusStripSpacePointPreparationAlg                      INFO Data Prep statistics
|---------|------------|
| Inputs  |     325456 |
| Outputs |     303739 |
|---------|------------|
ActsLargeRadiusStripOv...pSpacePointPreparationAlg                INFO Data Prep statistics
|---------|------------|
| Inputs  |      94491 |
| Outputs |      88354 |
|---------|------------|
ActsLargeRadiusStripSeedingAlg                                    INFO Seed statistics
|---------------------|------------|
| Spacepoints         |     392093 |
| Seeds               |       8982 |
| No track parameters |          0 |
|---------------------|------------|
ActsLargeRadiusTrackFindingAlg                                    INFO statistics
|-----------------------------------|------------|------------|
|                           All eta | SSS        | ALL        |
|-----------------------------------|------------|------------|
| Input seeds                       |       8982 |       8982 |
| No track parameters               |          0 |          0 |
| Used   seeds                      |       8955 |       8955 |
| Cannot find track                 |       8838 |       8838 |
| Duplicate seeds                   |         27 |         27 |
| CKF tracks                        |        117 |        117 |
| Rejected refined parameters       |          0 |          0 |
| selected tracks                   |         23 |         23 |
| Stopped tracks reaching max holes |       7657 |       7657 |
| Seeds with more than one branch   |          0 |          0 |
| Tracks failing second CKF         |        116 |        116 |
| Stopped tracks below pT cut       |       1297 |       1297 |
| Stopped tracks above max eta      |          0 |          0 |
|-----------------------------------|------------|------------|
ActsLargeRadiusTrackFindingAlg                                    INFO Ratios
|------------------------------------------|------------|------------|
|                                          | SSS        | ALL        |
|------------------------------------------|------------|------------|
| failed / seeds                           |   0.983968 |   0.983968 |
| duplication / seeds                      | 0.00300601 | 0.00300601 |
| Rejected refined params / seeds          |          0 |          0 |
| selected / CKF tracks                    |   0.196581 |   0.196581 |
| selected tracks / used seeds             |  0.0025684 |  0.0025684 |
| branched tracks / used seeds             |          0 |          0 |
| no 2nd CKF / CKF tracks                  |   0.991453 |   0.991453 |
|------------------------------------------|------------|------------|
| selected / CKF tracks           0.0- 0.5 |   0.178571 |   0.178571 |
|                                 0.5- 1.0 |   0.153846 |   0.153846 |
|                                 1.0- 1.5 |        0.1 |        0.1 |
|                                 1.5- 2.0 |   0.538462 |   0.538462 |
|                                 2.0- 2.5 |          0 |          0 |
|                                 2.5- 3.0 |          0 |          0 |
|                                 3.0- 3.5 |          0 |          0 |
|                                 3.5-+inf |          0 |          0 |
|------------------------------------------|------------|------------|
ActsConversionPixelClusterPreparationAlg                          INFO Data Prep statistics
|---------|------------|
| Inputs  |    1165578 |
| Outputs |      27223 |
|---------|------------|
ActsConversionStripClusterPreparationAlg                          INFO Data Prep statistics
|---------|------------|
| Inputs  |    1081478 |
| Outputs |      15529 |
|---------|------------|
ActsConversionStripSpacePointPreparationAlg                       INFO Data Prep statistics
|---------|------------|
| Inputs  |     325456 |
| Outputs |       4506 |
|---------|------------|
ActsConversionStripSeedingAlg                                     INFO Seed statistics
|---------------------|------------|
| Spacepoints         |       4506 |
| Seeds               |         45 |
| No track parameters |          0 |
|---------------------|------------|
ActsConversionTrackFindingAlg                                     INFO statistics
|-----------------------------------|------------|------------|
|                           All eta | SSS        | ALL        |
|-----------------------------------|------------|------------|
| Input seeds                       |         45 |         45 |
| No track parameters               |          0 |          0 |
| Used   seeds                      |         45 |         45 |
| Cannot find track                 |         45 |         45 |
| Duplicate seeds                   |          0 |          0 |
| CKF tracks                        |          0 |          0 |
| Rejected refined parameters       |          0 |          0 |
| selected tracks                   |          0 |          0 |
| Stopped tracks reaching max holes |         41 |         41 |
| Seeds with more than one branch   |          0 |          0 |
| Tracks failing second CKF         |          0 |          0 |
| Stopped tracks below pT cut       |          4 |          4 |
| Stopped tracks above max eta      |          0 |          0 |
|-----------------------------------|------------|------------|
ActsConversionTrackFindingAlg                                     INFO Ratios
|------------------------------------------|------------|------------|
|                                          | SSS        | ALL        |
|------------------------------------------|------------|------------|
| failed / seeds                           |          1 |          1 |
| duplication / seeds                      |          0 |          0 |
| Rejected refined params / seeds          |          0 |          0 |
| selected / CKF tracks                    |          0 |          0 |
| selected tracks / used seeds             |          0 |          0 |
| branched tracks / used seeds             |          0 |          0 |
| no 2nd CKF / CKF tracks                  |          0 |          0 |
|------------------------------------------|------------|------------|
| selected / CKF tracks           0.0- 0.5 |          0 |          0 |
|                                 0.5- 1.0 |          0 |          0 |
|                                 1.0- 1.5 |          0 |          0 |
|                                 1.5- 2.0 |          0 |          0 |
|                                 2.0- 2.5 |          0 |          0 |
|                                 2.5- 3.0 |          0 |          0 |
|                                 3.0- 3.5 |          0 |          0 |
|                                 3.5-+inf |          0 |          0 |
|------------------------------------------|------------|------------|
